practice/dump.vcd
$date
    Jan 12, 2023  23:38:32
$end
$version
    TOOL:	ncsim(64)	15.20-s086
$end
$timescale
    1 ns
$end

$scope module fa4_tb $end
$var integer  32 !    i  $end
$var integer  32 "    j  $end
$var integer  32 #    k  $end
$var reg       4 $    expected [3:0] $end

$scope module fint $end
$var reg       4 %    a [3:0] $end
$var reg       4 &    b [3:0] $end
$var reg       4 '    sum [3:0] $end
$var reg       1 (    cin  $end
$var reg       1 )    cout  $end
$upscope $end


$scope module dut $end
$var wire      1 *    temp_carry [2] $end
$var wire      1 +    temp_carry [1] $end
$var wire      1 ,    temp_carry [0] $end

$scope module add1 $end
$var wire      1 -    a  $end
$var wire      1 .    b  $end
$var wire      1 /    cin  $end
$var reg       1 0    sum  $end
$var reg       1 1    cout  $end
$upscope $end


$scope module add2 $end
$var wire      1 2    a  $end
$var wire      1 3    b  $end
$var wire      1 ,    cin  $end
$var reg       1 4    sum  $end
$var reg       1 5    cout  $end
$upscope $end


$scope module add3 $end
$var wire      1 6    a  $end
$var wire      1 7    b  $end
$var wire      1 +    cin  $end
$var reg       1 8    sum  $end
$var reg       1 9    cout  $end
$upscope $end


$scope module add4 $end
$var wire      1 :    a  $end
$var wire      1 ;    b  $end
$var wire      1 *    cin  $end
$var reg       1 <    sum  $end
$var reg       1 =    cout  $end
$upscope $end

$upscope $end

$upscope $end

$enddefinitions $end
$dumpvars
b0 !
b1 "
b0 #
b0 $
b0 %
b101 &
b101 '
0(
0)
0*
0+
0,
0-
1.
0/
10
01
02
03
04
05
06
17
18
09
0:
0;
0<
0=
$end
#10
b101 $
b1 #
1(
1/
11
00
1,
b100 '
14
b110 '
#20
b110 $
b10 #
b10 "
b0 #
0(
0/
01
10
0,
b111 '
04
b101 '
#30
b101 $
b1 #
1(
1/
11
00
1,
b100 '
14
b110 '
#40
b110 $
b10 #
b11 "
b0 #
0(
0/
01
10
0,
b111 '
04
b101 '
#50
b101 $
b1 #
1(
1/
11
00
1,
b100 '
14
b110 '
#60
b110 $
b10 #
b100 "
b0 #
0(
0/
01
10
0,
b111 '
04
b101 '
#70
b101 $
b1 #
1(
1/
11
00
1,
b100 '
14
b110 '
#80
b110 $
b10 #
b101 "
b0 #
0(
0/
01
10
0,
b111 '
04
b101 '
#90
b101 $
b1 #
1(
1/
11
00
1,
b100 '
14
b110 '
#100
b110 $
b10 #
b110 "
b0 #
0(
0/
01
10
0,
b111 '
04
b101 '
#110
b101 $
b1 #
1(
1/
11
00
1,
b100 '
14
b110 '
#120
b110 $
b10 #
b111 "
b0 #
0(
0/
01
10
0,
b111 '
04
b101 '
#130
b101 $
b1 #
1(
1/
11
00
1,
b100 '
14
b110 '
#140
b110 $
b10 #
b1000 "
b0 #
0(
0/
01
10
0,
b111 '
04
b101 '
#150
b101 $
b1 #
1(
1/
11
00
1,
b100 '
14
b110 '
#160
b110 $
b10 #
b1001 "
b0 #
0(
0/
01
10
0,
b111 '
04
b101 '
#170
b101 $
b1 #
1(
1/
11
00
1,
b100 '
14
b110 '
#180
b110 $
b10 #
b1010 "
b0 #
0(
0/
01
10
0,
b111 '
04
b101 '
#190
b101 $
b1 #
1(
1/
11
00
1,
b100 '
14
b110 '
#200
b110 $
b10 #
b1011 "
b0 #
0(
0/
01
10
0,
b111 '
04
b101 '
#210
b101 $
b1 #
1(
1/
11
00
1,
b100 '
14
b110 '
#220
b110 $
b10 #
b1100 "
b0 #
0(
0/
01
10
0,
b111 '
04
b101 '
#230
b101 $
b1 #
1(
1/
11
00
1,
b100 '
14
b110 '
#240
b110 $
b10 #
b1101 "
b0 #
0(
0/
01
10
0,
b111 '
04
b101 '
#250
b101 $
b1 #
1(
1/
11
00
1,
b100 '
14
b110 '
#260
b110 $
b10 #
b1110 "
b0 #
0(
0/
01
10
0,
b111 '
04
b101 '
#270
b101 $
b1 #
1(
1/
11
00
1,
b100 '
14
b110 '
#280
b110 $
b10 #
b1111 "
b0 #
0(
0/
01
10
0,
b111 '
04
b101 '
#290
b101 $
b1 #
1(
1/
11
00
1,
b100 '
14
b110 '
#300
b110 $
b10 #
b10000 "
b1 !
b1 "
b0 #
b1 %
0(
0/
1-
#310
b1 #
1(
1/
10
b111 '
#320
b111 $
b10 #
b10 "
b0 #
0(
0/
00
b110 '
#330
b110 $
b1 #
1(
1/
10
b111 '
#340
b111 $
b10 #
b11 "
b0 #
0(
0/
00
b110 '
#350
b110 $
b1 #
1(
1/
10
b111 '
#360
b111 $
b10 #
b100 "
b0 #
0(
0/
00
b110 '
#370
b110 $
b1 #
1(
1/
10
b111 '
#380
b111 $
b10 #
b101 "
b0 #
0(
0/
00
b110 '
#390
b110 $
b1 #
1(
1/
10
b111 '
#400
b111 $
b10 #
b110 "
b0 #
0(
0/
00
b110 '
#410
b110 $
b1 #
1(
1/
10
b111 '
#420
b111 $
b10 #
b111 "
b0 #
0(
0/
00
b110 '
#430
b110 $
b1 #
1(
1/
10
b111 '
#440
b111 $
b10 #
b1000 "
b0 #
0(
0/
00
b110 '
#450
b110 $
b1 #
1(
1/
10
b111 '
#460
b111 $
b10 #
b1001 "
b0 #
0(
0/
00
b110 '
#470
b110 $
b1 #
1(
1/
10
b111 '
#480
b111 $
b10 #
b1010 "
b0 #
0(
0/
00
b110 '
#490
b110 $
b1 #
1(
1/
10
b111 '
#500
b111 $
b10 #
b1011 "
b0 #
0(
0/
00
b110 '
#510
b110 $
b1 #
1(
1/
10
b111 '
#520
b111 $
b10 #
b1100 "
b0 #
0(
0/
00
b110 '
#530
b110 $
b1 #
1(
1/
10
b111 '
#540
b111 $
b10 #
b1101 "
b0 #
0(
0/
00
b110 '
#550
b110 $
b1 #
1(
1/
10
b111 '
#560
b111 $
b10 #
b1110 "
b0 #
0(
0/
00
b110 '
#570
b110 $
b1 #
1(
1/
10
b111 '
#580
b111 $
b10 #
b1111 "
b0 #
0(
0/
00
b110 '
#590
b110 $
b1 #
1(
1/
10
b111 '
#600
b111 $
b10 #
b10000 "
b10 !
b1 "
b0 #
b10 %
0(
0/
12
0-
01
15
04
1+
0,
b101 '
19
08
05
14
0+
1*
b111 '
09
18
b11 '
1<
0*
b1011 '
b1111 '
0<
b111 '
#610
b1 #
1(
1/
11
00
1,
b110 '
15
04
1+
b100 '
19
08
1*
b0 '
1<
b1000 '
#620
b1000 $
b10 #
b10 "
b0 #
0(
0/
01
10
0,
b1001 '
05
14
0+
b1011 '
09
18
0*
b1111 '
0<
b111 '
#630
b111 $
b1 #
1(
1/
11
00
1,
b110 '
15
04
1+
b100 '
19
08
1*
b0 '
1<
b1000 '
#640
b1000 $
b10 #
b11 "
b0 #
0(
0/
01
10
0,
b1001 '
05
14
0+
b1011 '
09
18
0*
b1111 '
0<
b111 '
#650
b111 $
b1 #
1(
1/
11
00
1,
b110 '
15
04
1+
b100 '
19
08
1*
b0 '
1<
b1000 '
#660
b1000 $
b10 #
b100 "
b0 #
0(
0/
01
10
0,
b1001 '
05
14
0+
b1011 '
09
18
0*
b1111 '
0<
b111 '
#670
b111 $
b1 #
1(
1/
11
00
1,
b110 '
15
04
1+
b100 '
19
08
1*
b0 '
1<
b1000 '
#680
b1000 $
b10 #
b101 "
b0 #
0(
0/
01
10
0,
b1001 '
05
14
0+
b1011 '
09
18
0*
b1111 '
0<
b111 '
#690
b111 $
b1 #
1(
1/
11
00
1,
b110 '
15
04
1+
b100 '
19
08
1*
b0 '
1<
b1000 '
#700
b1000 $
b10 #
b110 "
b0 #
0(
0/
01
10
0,
b1001 '
05
14
0+
b1011 '
09
18
0*
b1111 '
0<
b111 '
#710
b111 $
b1 #
1(
1/
11
00
1,
b110 '
15
04
1+
b100 '
19
08
1*
b0 '
1<
b1000 '
#720
b1000 $
b10 #
b111 "
b0 #
0(
0/
01
10
0,
b1001 '
05
14
0+
b1011 '
09
18
0*
b1111 '
0<
b111 '
#730
b111 $
b1 #
1(
1/
11
00
1,
b110 '
15
04
1+
b100 '
19
08
1*
b0 '
1<
b1000 '
#740
b1000 $
b10 #
b1000 "
b0 #
0(
0/
01
10
0,
b1001 '
05
14
0+
b1011 '
09
18
0*
b1111 '
0<
b111 '
#750
b111 $
b1 #
1(
1/
11
00
1,
b110 '
15
04
1+
b100 '
19
08
1*
b0 '
1<
b1000 '
#760
b1000 $
b10 #
b1001 "
b0 #
0(
0/
01
10
0,
b1001 '
05
14
0+
b1011 '
09
18
0*
b1111 '
0<
b111 '
#770
b111 $
b1 #
1(
1/
11
00
1,
b110 '
15
04
1+
b100 '
19
08
1*
b0 '
1<
b1000 '
#780
b1000 $
b10 #
b1010 "
b0 #
0(
0/
01
10
0,
b1001 '
05
14
0+
b1011 '
09
18
0*
b1111 '
0<
b111 '
#790
b111 $
b1 #
1(
1/
11
00
1,
b110 '
15
04
1+
b100 '
19
08
1*
b0 '
1<
b1000 '
#800
b1000 $
b10 #
b1011 "
b0 #
0(
0/
01
10
0,
b1001 '
05
14
0+
b1011 '
09
18
0*
b1111 '
0<
b111 '
#810
b111 $
b1 #
1(
1/
11
00
1,
b110 '
15
04
1+
b100 '
19
08
1*
b0 '
1<
b1000 '
#820
b1000 $
b10 #
b1100 "
b0 #
0(
0/
01
10
0,
b1001 '
05
14
0+
b1011 '
09
18
0*
b1111 '
0<
b111 '
#830
b111 $
b1 #
1(
1/
11
00
1,
b110 '
15
04
1+
b100 '
19
08
1*
b0 '
1<
b1000 '
#840
b1000 $
b10 #
b1101 "
b0 #
0(
0/
01
10
0,
b1001 '
05
14
0+
b1011 '
09
18
0*
b1111 '
0<
b111 '
#850
b111 $
b1 #
1(
1/
11
00
1,
b110 '
15
04
1+
b100 '
19
08
1*
b0 '
1<
b1000 '
#860
b1000 $
b10 #
b1110 "
b0 #
0(
0/
01
10
0,
b1001 '
05
14
0+
b1011 '
09
18
0*
b1111 '
0<
b111 '
#870
b111 $
b1 #
1(
1/
11
00
1,
b110 '
15
04
1+
b100 '
19
08
1*
b0 '
1<
b1000 '
#880
b1000 $
b10 #
b1111 "
b0 #
0(
0/
01
10
0,
b1001 '
05
14
0+
b1011 '
09
18
0*
b1111 '
0<
b111 '
#890
b111 $
b1 #
1(
1/
11
00
1,
b110 '
15
04
1+
b100 '
19
08
1*
b0 '
1<
b1000 '
#900
b1000 $
b10 #
b10000 "
b11 !
b1 "
b0 #
b11 %
0(
0/
1-
#910
b1 #
1(
1/
10
b1001 '
#920
b1001 $
b10 #
b10 "
b0 #
0(
0/
00
b1000 '
#930
b1000 $
b1 #
1(
1/
10
b1001 '
#940
b1001 $
b10 #
b11 "
b0 #
0(
0/
00
b1000 '
#950
b1000 $
b1 #
1(
1/
10
b1001 '
#960
b1001 $
b10 #
b100 "
b0 #
0(
0/
00
b1000 '
#970
b1000 $
b1 #
1(
1/
10
b1001 '
#980
b1001 $
b10 #
b101 "
b0 #
0(
0/
00
b1000 '
#990
b1000 $
b1 #
1(
1/
10
b1001 '
