project/seniorPROJECT/traces.vcd
$date
    Dec 16, 2022  21:30:18
$end
$version
    TOOL:	ncsim(64)	15.20-s086
$end
$timescale
    1 ps
$end

$scope module testbench $end
$var reg       1 !    act_n  $end
$var reg       1 "    reset_n  $end
$var reg       1 #    refresh  $end
$var reg      16 $    data_in [15:0] $end
$var reg      16 %    data_out [15:0] $end
$var reg      20 &    Addr [19:0] $end

$scope module c1 $end
$var wire      1 '    bank_group_select  $end
$var wire      2 (    bank_select [1:0] $end
$var wire      1 )    ras_n_a16  $end
$var wire      1 *    cas_n_a15  $end
$var wire      1 +    we_n_a14  $end
$var wire      1 ,    a13  $end
$var wire      1 -    bc_n_a12  $end
$var wire      1 .    a11  $end
$var wire      1 /    ap_a10  $end
$var wire     10 0    a9_0 [9:0] $end
$var wire      1 1    act_n  $end
$var wire     16 2    data_in [15:0] $end
$var wire      1 3    reset_n  $end
$var wire      1 4    refresh  $end
$var wire      4 5    row_addr [3:0] $end
$var reg      16 6    data_out [15:0] $end
$var reg       1 7    cs_n  $end
$var reg       1 8    cke  $end
$var reg       1 9    ck_t  $end
$var reg       1 :    ck_c  $end
$var reg       3 ;    cur_bank [2:0] $end
$var reg       3 <    next_bank [2:0] $end
$var reg       1 =    bgs_temp  $end
$var reg       2 >    b_select_temp [1:0] $end
$var reg       1 ?    flag  $end

$scope module clk1 $end
$var reg       1 @    ck_c  $end
$var reg       1 A    ck_t  $end
$var wire      1 B    cke  $end
$upscope $end

$upscope $end

$upscope $end


$scope module ddr4_pkg $end
$var parameter  1 C    HIGH  $end
$var parameter  1 D    LOW  $end
$var parameter  1 E    VALID  $end
$var parameter  4 F    IDLE  $end
$var parameter  4 G    ACTIVATE  $end
$var parameter  4 H    INIT_mem  $end
$var parameter  4 I    WRITE  $end
$var parameter  4 J    WRITE_A  $end
$var parameter  4 K    READ  $end
$var parameter  4 L    READ_A  $end
$var parameter  4 M    PRE  $end
$var parameter  4 N    RESET  $end
$var parameter  4 O    REFRESH  $end
$var reg      16 P    dq [15:0] $end
$var reg       4 Q    present_state [3:0] $end
$var reg       4 R    next_state [3:0] $end
$var reg       1 S    clear_counter  $end
$var reg      32 T    refresh_counter [31:0] $end
$var reg       1 U    refresh_almost  $end
$var reg       1 V    refresh_rdy  $end
$var reg       1 W    refresh_done  $end
$var reg       1 X    clear_wait_counter  $end
$var reg       1 Y    wait_done  $end
$var reg      32 Z    wait_counter [31:0] $end
$var real     64 [    nCK  $end
$var parameter 32 \    tRTP  $end
$var parameter 32 ]    tWTR  $end
$var parameter 32 ^    tWR  $end
$var parameter 32 _    tRP  $end
$var parameter 32 `    ACT_DELAY  $end
$var parameter 32 a    tRCD  $end
$var parameter 32 b    CAS_DELAY  $end
$var parameter 32 c    tCKE_L  $end
$var parameter 32 d    tXPR  $end
$var parameter 32 e    tMRD  $end
$var parameter 32 f    tMOD  $end
$var parameter 32 g    tZQ  $end
$var parameter 32 h    tIS  $end
$var parameter 32 i    tRAS  $end
$var parameter 32 j    tREF  $end
$var parameter 32 k    tRC  $end
$upscope $end

$enddefinitions $end
$dumpvars
b100110 k
b1100001100000 j
b10100 i
b1010 h
b1000000000000 g
b11000 f
b1000 e
b101 d
b110010000 c
b1010 b
b1010 a
b110 `
b1010 _
b1100 ^
b110 ]
b110 \
r1.25 [
b1001 O
b1000 N
b111 M
b110 L
b101 K
b100 J
b11 I
b10 H
b1 G
b0 F
1E
0D
1C
x!
x"
x#
bx $
bx %
bx &
x'
bx (
x)
x*
x+
x,
x-
x.
x/
bx 0
x1
bx 2
x3
x4
bx 5
bx 6
x7
x8
19
0:
bx ;
bx <
x=
bx >
0?
0@
1A
xB
bx P
b0 Q
b0 R
xS
bx T
xU
xV
xW
xX
xY
bx Z
$end
#10000
0"
03
07
18
b1000 R
1B
#20000
1@
0A
09
1:
#25000
0@
1A
19
0:
b1000 Q
b10 R
#30000
1@
0A
09
1:
#35000
0@
1A
19
0:
#40000
1@
0A
09
1:
#45000
0@
1A
19
0:
#50000
1@
0A
09
1:
#55000
0@
1A
19
0:
#60000
1@
0A
09
1:
#65000
0@
1A
19
0:
#70000
1@
0A
09
1:
#75000
0@
1A
19
0:
#80000
1@
0A
09
1:
#85000
0@
1A
19
0:
#90000
1@
0A
09
1:
#95000
0@
1A
19
0:
#100000
1@
0A
09
1:
#105000
0@
1A
19
0:
#110000
1"
1@
0A
13
09
1:
#115000
0@
1A
19
0:
b10 Q
b0 R
#120000
1@
0A
09
1:
#125000
0@
1A
19
0:
b0 Q
#130000
1@
0A
09
1:
#135000
0@
1A
19
0:
#140000
1@
0A
09
1:
#145000
0@
1A
19
0:
#150000
1@
0A
09
1:
#155000
0@
1A
19
0:
#160000
1@
0A
09
1:
#165000
0@
1A
19
0:
#170000
1@
0A
09
1:
#175000
0@
1A
19
0:
#180000
1@
0A
09
1:
#185000
0@
1A
19
0:
#190000
1@
0A
09
1:
#195000
0@
1A
19
0:
#200000
1@
0A
09
1:
#205000
0@
1A
19
0:
#210000
1#
1@
0A
14
b1001 R
09
1:
#215000
0@
1A
19
0:
b1001 Q
#220000
0#
0!
1@
0A
01
04
08
1S
18
17
b0 R
09
1:
#225000
0@
1A
19
0:
b0 Q
b0 T
0U
0V
0W
07
b1 R
#230000
1@
0A
09
1:
#235000
0@
1A
19
0:
b1 Q
