project/seniorPROJECT/dontchange/traces.vcd
$date
    Dec 17, 2022  15:47:47
$end
$version
    TOOL:	ncsim(64)	15.20-s086
$end
$timescale
    1 ps
$end

$scope module testbench $end
$var reg       1 !    act_n  $end
$var reg       1 "    reset_n  $end
$var reg       1 #    refresh  $end
$var reg      16 $    data_in [15:0] $end
$var reg      16 %    data_out [15:0] $end
$var reg      20 &    Addr [19:0] $end

$scope module c1 $end
$var wire      1 '    bank_group_select  $end
$var wire      2 (    bank_select [1:0] $end
$var wire      1 )    ras_n_a16  $end
$var wire      1 *    cas_n_a15  $end
$var wire      1 +    we_n_a14  $end
$var wire      1 ,    a13  $end
$var wire      1 -    bc_n_a12  $end
$var wire      1 .    a11  $end
$var wire      1 /    ap_a10  $end
$var wire     10 0    a9_0 [9:0] $end
$var wire      1 1    act_n  $end
$var wire      1 2    reset_n  $end
$var wire      1 3    refresh  $end
$var wire     17 4    row_addr [16:0] $end
$var wire     16 5    data_in [15:0] $end
$var reg      16 6    data_out [15:0] $end
$var reg       1 7    cs_n  $end
$var reg       1 8    cke  $end
$var reg       1 9    ck_t  $end
$var reg       1 :    ck_c  $end
$var reg       3 ;    cur_bank [2:0] $end
$var reg       3 <    next_bank [2:0] $end
$var reg       1 =    bgs_temp  $end
$var reg       2 >    b_select_temp [1:0] $end
$var reg       1 ?    flag  $end

$scope module clk1 $end
$var reg       1 @    ck_c  $end
$var reg       1 A    ck_t  $end
$var wire      1 B    cke  $end
$upscope $end

$upscope $end

$upscope $end


$scope module ddr4_pkg $end
$var parameter  1 C    HIGH  $end
$var parameter  1 D    LOW  $end
$var parameter  1 E    VALID  $end
$var parameter  4 F    IDLE  $end
$var parameter  4 G    ACTIVATE  $end
$var parameter  4 H    INIT_mem  $end
$var parameter  4 I    WRITE  $end
$var parameter  4 J    WRITE_A  $end
$var parameter  4 K    READ  $end
$var parameter  4 L    READ_A  $end
$var parameter  4 M    PRE  $end
$var parameter  4 N    RESET  $end
$var parameter  4 O    REFRESH  $end
$var reg      16 P    dq [15:0] $end
$var reg       4 Q    present_state [3:0] $end
$var reg       4 R    next_state [3:0] $end
$var reg       1 S    clear_counter  $end
$var reg      32 T    refresh_counter [31:0] $end
$var reg       1 U    refresh_almost  $end
$var reg       1 V    refresh_rdy  $end
$var reg       1 W    refresh_done  $end
$var reg       1 X    clear_wait_counter  $end
$var reg       1 Y    wait_done  $end
$var reg      32 Z    wait_counter [31:0] $end
$var real     64 [    nCK  $end
$var parameter 32 \    tRTP  $end
$var parameter 32 ]    tWTR  $end
$var parameter 32 ^    tWR  $end
$var parameter 32 _    tRP  $end
$var parameter 32 `    ACT_DELAY  $end
$var parameter 32 a    tRCD  $end
$var parameter 32 b    CAS_DELAY  $end
$var parameter 32 c    tCKE_L  $end
$var parameter 32 d    tXPR  $end
$var parameter 32 e    tMRD  $end
$var parameter 32 f    tMOD  $end
$var parameter 32 g    tZQ  $end
$var parameter 32 h    tIS  $end
$var parameter 32 i    tRAS  $end
$var parameter 32 j    tREF  $end
$var parameter 32 k    tRC  $end
$upscope $end

$enddefinitions $end
$dumpvars
b100110 k
b1100001100000 j
b10100 i
b1010 h
b1000000000000 g
b11000 f
b1000 e
b101 d
b110010000 c
b1010 b
b1010 a
b110 `
b1010 _
b1100 ^
b110 ]
b110 \
r1.25 [
b1001 O
b1000 N
b111 M
b110 L
b101 K
b100 J
b11 I
b10 H
b1 G
b0 F
1E
0D
1C
x!
x"
x#
bx $
bx %
bx &
x'
bx (
x)
x*
x+
x,
x-
x.
x/
bx 0
x1
x2
x3
bx 4
bx 5
bx 6
x7
x8
19
0:
bx ;
bx <
x=
bx >
0?
0@
1A
xB
bx P
b0 Q
b0 R
xS
bx T
xU
xV
xW
xX
xY
bx Z
$end
#10000
0"
02
07
18
b1000 R
0S
1X
1B
#20000
1@
0A
09
1:
#25000
0@
1A
19
0:
b1000 Q
0Y
b0 Z
b10 R
#30000
1@
0A
09
1:
#35000
0@
1A
19
0:
#40000
1@
0A
09
1:
#45000
0@
1A
19
0:
#50000
1@
0A
09
1:
#55000
0@
1A
19
0:
#60000
1@
0A
09
1:
#65000
0@
1A
19
0:
#70000
1@
0A
09
1:
#75000
0@
1A
19
0:
#80000
1@
0A
09
1:
#85000
0@
1A
19
0:
#90000
1@
0A
09
1:
#95000
0@
1A
19
0:
#100000
1@
0A
09
1:
#105000
0@
1A
19
0:
#110000
1"
1@
0A
12
09
1:
#115000
0@
1A
19
0:
b10 Q
b0 R
#120000
1@
0A
09
1:
#125000
0@
1A
19
0:
b0 Q
#130000
1@
0A
09
1:
#135000
0@
1A
19
0:
#140000
1@
0A
09
1:
#145000
0@
1A
19
0:
#150000
1@
0A
09
1:
#155000
0@
1A
19
0:
#160000
1@
0A
09
1:
#165000
0@
1A
19
0:
#170000
1@
0A
09
1:
#175000
0@
1A
19
0:
#180000
1@
0A
09
1:
#185000
0@
1A
19
0:
#190000
1@
0A
09
1:
#195000
0@
1A
19
0:
#200000
1@
0A
09
1:
#205000
0@
1A
19
0:
#210000
1#
1@
0A
13
b1001 R
09
1:
#215000
0@
1A
19
0:
b1001 Q
08
1S
0B
#220000
0#
b0xxxxxxxxxxxxxxxxxxx &
b0xxxxxxxxxxxxxxxxx &
b1xxxxxxxxxxxxxxxx &
b10xxxxxxxxxxxxxxx &
b10xx1xxxxxxxxxxxx &
b10x11xxxxxxxxxxxx &
b10x111xxxxxxxxxxx &
b10x1110xxxxxxxxxx &
1@
0A
b10x1110xxxxxxxxxx 4
0/
1.
1-
1,
0*
1)
b0 (
0'
03
b0 <
18
17
b0 R
09
1:
1B
#230000
0@
1A
19
0:
b0 ;
b0 Q
b0 T
0U
0V
0W
07
0S
#235000
1@
0A
09
1:
#240000
0@
1A
19
0:
b1 T
#245000
1@
0A
09
1:
#250000
0@
1A
19
0:
b10 T
#255000
1@
0A
09
1:
#260000
0@
1A
19
0:
b11 T
#265000
1@
0A
09
1:
#270000
0!
b11x1110xxxxxxxxxx &
b10 &
0@
1A
b10 4
b10 0
0.
0-
0,
0+
0)
01
b1 R
19
0:
b1 Q
b100 T
0=
b0 >
#275000
1@
0A
09
1:
#280000
1!
b0 &
b1111111100000000 $
0@
1A
b1111111100000000 5
b0 4
b0 0
11
b11 R
19
0:
b11 Q
b101 T
0X
#285000
1@
0A
09
1:
#290000
0@
1A
19
0:
b110 T
b1 Z
#295000
1@
0A
09
1:
#300000
0@
1A
19
0:
b111 T
b10 Z
#305000
1@
0A
09
1:
#310000
0@
1A
19
0:
b1000 T
b11 Z
#315000
1@
0A
09
1:
#320000
0@
1A
19
0:
b1001 T
b100 Z
#325000
1@
0A
09
1:
#330000
0@
1A
19
0:
b1010 T
b101 Z
#335000
1@
0A
09
1:
#340000
0@
1A
19
0:
b1011 T
b110 Z
#345000
1@
0A
09
1:
#350000
0@
1A
19
0:
b1100 T
b111 Z
#355000
1@
0A
09
1:
#360000
0@
1A
19
0:
b1101 T
b1000 Z
#365000
1@
0A
09
1:
#370000
0@
1A
19
0:
b1110 T
b1001 Z
#375000
1@
0A
09
1:
#380000
0@
1A
19
0:
b1111 T
b1010 Z
#385000
1@
0A
09
1:
#390000
0@
1A
19
0:
b10000 T
b1011 Z
#395000
1@
0A
09
1:
#400000
0@
1A
19
0:
b10001 T
b1100 Z
#405000
1@
0A
09
1:
#410000
0@
1A
19
0:
b10010 T
b1101 Z
#415000
1@
0A
09
1:
#420000
0@
1A
19
0:
b10011 T
b1110 Z
#425000
1@
0A
09
1:
#430000
0@
1A
19
0:
b10100 T
b1111 Z
#435000
1@
0A
09
1:
#440000
0@
1A
19
0:
b10101 T
b10000 Z
#445000
1@
0A
09
1:
#450000
0@
1A
19
0:
b10110 T
b10001 Z
#455000
1@
0A
09
1:
#460000
0@
1A
19
0:
b10111 T
b10010 Z
#465000
1@
0A
09
1:
#470000
0@
1A
19
0:
b11000 T
b10011 Z
#475000
1@
0A
09
1:
#480000
0@
1A
19
0:
b11001 T
b10100 Z
#485000
1@
0A
09
1:
#490000
0@
1A
19
0:
b11010 T
b10101 Z
#495000
1@
0A
09
1:
#500000
0@
1A
19
0:
b11011 T
b10110 Z
#505000
1@
0A
09
1:
#510000
0@
1A
19
0:
b11100 T
b10111 Z
#515000
1@
0A
09
1:
#520000
0@
1A
19
0:
b11101 T
b11000 Z
#525000
1@
0A
09
1:
#530000
0@
1A
19
0:
b11110 T
b11001 Z
#535000
1@
0A
09
1:
#540000
0@
1A
19
0:
b11111 T
b11010 Z
#545000
1@
0A
09
1:
#550000
0@
1A
19
0:
b100000 T
b11011 Z
#555000
1@
0A
09
1:
#560000
0@
1A
19
0:
b100001 T
b11100 Z
#565000
1@
0A
09
1:
#570000
0@
1A
19
0:
b100010 T
b11101 Z
#575000
1@
0A
09
1:
#580000
0@
1A
19
0:
b100011 T
b11110 Z
#585000
1@
0A
09
1:
#590000
0@
1A
19
0:
b100100 T
b11111 Z
#595000
1@
0A
09
1:
#600000
0@
1A
19
0:
b100101 T
b100000 Z
#605000
1@
0A
09
1:
#610000
0@
1A
19
0:
b100110 T
b100001 Z
#615000
1@
0A
09
1:
#620000
0@
1A
19
0:
b100111 T
b100010 Z
#625000
1@
0A
09
1:
#630000
0@
1A
19
0:
b101000 T
b100011 Z
#635000
1@
0A
09
1:
#640000
0@
1A
19
0:
b101001 T
b100100 Z
#645000
1@
0A
09
1:
#650000
0@
1A
19
0:
b101010 T
b100101 Z
#655000
1@
0A
09
1:
#660000
0@
1A
19
0:
b101011 T
b100110 Z
#665000
1@
0A
09
1:
#670000
0@
1A
19
0:
b101100 T
b100111 Z
1Y
#675000
1@
0A
09
1:
#680000
b100000000000000 &
0@
1A
b100000000000000 4
1+
b101 R
19
0:
b101 Q
b101101 T
b101000 Z
b1111111100000000 6
b1111111100000000 %
#685000
1@
0A
09
1:
#690000
0@
1A
19
0:
b101110 T
b101001 Z
#695000
1@
0A
09
1:
#700000
0@
1A
19
0:
b101111 T
b101010 Z
#705000
1@
0A
09
1:
#710000
0@
1A
19
0:
b110000 T
b101011 Z
#715000
1@
0A
09
1:
#720000
0@
1A
19
0:
b110001 T
b101100 Z
#725000
1@
0A
09
1:
#730000
0!
0@
1A
01
19
0:
b110010 T
b101101 Z
#735000
1@
0A
09
1:
#740000
b1100000000000000 &
0@
1A
b1100000000000000 4
1*
19
0:
b110011 T
b101110 Z
#745000
1@
0A
09
1:
#750000
b10100000000000000000 &
0@
1A
b0 4
0+
0*
b1 (
1'
b101 <
b111 R
1?
19
0:
b101 ;
b111 Q
b110100 T
b101111 Z
b0 R
#755000
1@
0A
09
1:
#760000
0@
1A
19
0:
b0 Q
b110101 T
b110000 Z
b1 R
1X
#765000
1@
0A
09
1:
#770000
0@
1A
19
0:
b1 Q
b110110 T
0Y
b0 Z
1=
b1 >
0?
#775000
1@
0A
09
1:
#780000
0@
1A
19
0:
b110111 T
#785000
1@
0A
09
1:
#790000
0@
1A
19
0:
b111000 T
#795000
1@
0A
09
1:
#800000
0@
1A
19
0:
b111001 T
#805000
1@
0A
09
1:
#810000
0@
1A
19
0:
b111010 T
#815000
1@
0A
09
1:
#820000
0@
1A
19
0:
b111011 T
#825000
1@
0A
09
1:
#830000
0@
1A
19
0:
b111100 T
#835000
1@
0A
09
1:
#840000
0@
1A
19
0:
b111101 T
#845000
1@
0A
09
1:
#850000
0@
1A
19
0:
b111110 T
#855000
1@
0A
09
1:
#860000
0@
1A
19
0:
b111111 T
#865000
1@
0A
09
1:
#870000
0@
1A
19
0:
b1000000 T
#875000
1@
0A
09
1:
#880000
0@
1A
19
0:
b1000001 T
#885000
1@
0A
09
1:
#890000
0@
1A
19
0:
b1000010 T
#895000
1@
0A
09
1:
#900000
0@
1A
19
0:
b1000011 T
#905000
1@
0A
09
1:
#910000
0@
1A
19
0:
b1000100 T
#915000
1@
0A
09
1:
#920000
0@
1A
19
0:
b1000101 T
#925000
1@
0A
09
1:
#930000
0@
1A
19
0:
b1000110 T
#935000
1@
0A
09
1:
#940000
0@
1A
19
0:
b1000111 T
#945000
1@
0A
09
1:
#950000
0@
1A
19
0:
b1001000 T
#955000
1@
0A
09
1:
#960000
0@
1A
19
0:
b1001001 T
#965000
1@
0A
09
1:
#970000
0@
1A
19
0:
b1001010 T
#975000
1@
0A
09
1:
#980000
0@
1A
19
0:
b1001011 T
#985000
1@
0A
09
1:
#990000
0@
1A
19
0:
b1001100 T
#995000
1@
0A
09
1:
#1000000
0@
1A
19
0:
b1001101 T
#1005000
1@
0A
09
1:
#1010000
0@
1A
19
0:
b1001110 T
#1015000
1@
0A
09
1:
#1020000
0@
1A
19
0:
b1001111 T
#1025000
1@
0A
09
1:
#1030000
0@
1A
19
0:
b1010000 T
#1035000
1@
0A
09
1:
#1040000
0@
1A
19
0:
b1010001 T
#1045000
1@
0A
09
1:
#1050000
0@
1A
19
0:
b1010010 T
#1055000
1@
0A
09
1:
#1060000
0@
1A
19
0:
b1010011 T
#1065000
1@
0A
09
1:
#1070000
0@
1A
19
0:
b1010100 T
#1075000
1@
0A
09
1:
#1080000
0@
1A
19
0:
b1010101 T
#1085000
1@
0A
09
1:
#1090000
0@
1A
19
0:
b1010110 T
#1095000
1@
0A
09
1:
#1100000
0@
1A
19
0:
b1010111 T
#1105000
1@
0A
09
1:
#1110000
0@
1A
19
0:
b1011000 T
#1115000
1@
0A
09
1:
#1120000
0@
1A
19
0:
b1011001 T
#1125000
1@
0A
09
1:
#1130000
0@
1A
19
0:
b1011010 T
#1135000
1@
0A
09
1:
#1140000
0@
1A
19
0:
b1011011 T
#1145000
1@
0A
09
1:
#1150000
0@
1A
19
0:
b1011100 T
#1155000
1@
0A
09
1:
#1160000
0@
1A
19
0:
b1011101 T
#1165000
1@
0A
09
1:
#1170000
0@
1A
19
0:
b1011110 T
#1175000
1@
0A
09
1:
#1180000
0@
1A
19
0:
b1011111 T
#1185000
1@
0A
09
1:
#1190000
0@
1A
19
0:
b1100000 T
#1195000
1@
0A
09
1:
#1200000
0@
1A
19
0:
b1100001 T
#1205000
1@
0A
09
1:
#1210000
0@
1A
19
0:
b1100010 T
#1215000
1@
0A
09
1:
#1220000
0@
1A
19
0:
b1100011 T
#1225000
1@
0A
09
1:
#1230000
0@
1A
19
0:
b1100100 T
#1235000
1@
0A
09
1:
#1240000
0@
1A
19
0:
b1100101 T
#1245000
1@
0A
09
1:
#1250000
0@
1A
19
0:
b1100110 T
#1255000
1@
0A
09
1:
#1260000
0@
1A
19
0:
b1100111 T
#1265000
1@
0A
09
1:
#1270000
0@
1A
19
0:
b1101000 T
#1275000
1@
0A
09
1:
#1280000
0@
1A
19
0:
b1101001 T
#1285000
1@
0A
09
1:
#1290000
0@
1A
19
0:
b1101010 T
#1295000
1@
0A
09
1:
#1300000
0@
1A
19
0:
b1101011 T
#1305000
1@
0A
09
1:
#1310000
0@
1A
19
0:
b1101100 T
#1315000
1@
0A
09
1:
#1320000
0@
1A
19
0:
b1101101 T
#1325000
1@
0A
09
1:
#1330000
0@
1A
19
0:
b1101110 T
#1335000
1@
0A
09
1:
#1340000
0@
1A
19
0:
b1101111 T
#1345000
1@
0A
09
1:
#1350000
0@
1A
19
0:
b1110000 T
#1355000
1@
0A
09
1:
#1360000
0@
1A
19
0:
b1110001 T
#1365000
1@
0A
09
1:
#1370000
0@
1A
19
0:
b1110010 T
#1375000
1@
0A
09
1:
#1380000
0@
1A
19
0:
b1110011 T
#1385000
1@
0A
09
1:
#1390000
0@
1A
19
0:
b1110100 T
#1395000
1@
0A
09
1:
#1400000
0@
1A
19
0:
b1110101 T
#1405000
1@
0A
09
1:
#1410000
0@
1A
19
0:
b1110110 T
#1415000
1@
0A
09
1:
#1420000
0@
1A
19
0:
b1110111 T
#1425000
1@
0A
09
1:
#1430000
0@
1A
19
0:
b1111000 T
#1435000
1@
0A
09
1:
#1440000
0@
1A
19
0:
b1111001 T
#1445000
1@
0A
09
1:
#1450000
0@
1A
19
0:
b1111010 T
#1455000
1@
0A
09
1:
#1460000
0@
1A
19
0:
b1111011 T
#1465000
1@
0A
09
1:
#1470000
0@
1A
19
0:
b1111100 T
#1475000
1@
0A
09
1:
#1480000
0@
1A
19
0:
b1111101 T
#1485000
1@
0A
09
1:
#1490000
0@
1A
19
0:
b1111110 T
#1495000
1@
0A
09
1:
#1500000
0@
1A
19
0:
b1111111 T
#1505000
1@
0A
09
1:
#1510000
0@
1A
19
0:
b10000000 T
#1515000
1@
0A
09
1:
#1520000
0@
1A
19
0:
b10000001 T
#1525000
1@
0A
09
1:
#1530000
0@
1A
19
0:
b10000010 T
#1535000
1@
0A
09
1:
#1540000
0@
1A
19
0:
b10000011 T
#1545000
1@
0A
09
1:
#1550000
1!
b10100000000000000001 &
bx $
b1010111110111100 $
0@
1A
b1010111110111100 5
b1 4
b1 0
11
b11 R
19
0:
b11 Q
b10000100 T
0X
#1555000
1@
0A
09
1:
#1560000
0@
1A
19
0:
b10000101 T
b1 Z
#1565000
1@
0A
09
1:
#1570000
b100000000000000001 &
b1 &
0@
1A
b0 (
0'
b0 <
b111 R
1?
19
0:
b0 ;
b111 Q
b10000110 T
b10 Z
#1575000
1@
0A
09
1:
#1580000
0@
1A
19
0:
b10000111 T
b11 Z
#1585000
1@
0A
09
1:
#1590000
b10100000000000000000 &
0@
1A
b0 4
b0 0
b1 (
1'
b101 <
19
0:
b101 ;
b10001000 T
b100 Z
#1595000
1@
0A
09
1:
#1600000
0@
1A
19
0:
b10001001 T
b101 Z
#1605000
1@
0A
09
1:
#1610000
0@
1A
19
0:
b10001010 T
b110 Z
#1615000
1@
0A
09
1:
#1620000
0@
1A
19
0:
b10001011 T
b111 Z
#1625000
1@
0A
09
1:
#1630000
0@
1A
19
0:
b10001100 T
b1000 Z
#1635000
1@
0A
09
1:
#1640000
0@
1A
19
0:
b10001101 T
b1001 Z
#1645000
1@
0A
09
1:
#1650000
0@
1A
19
0:
b10001110 T
b1010 Z
#1655000
1@
0A
09
1:
#1660000
0@
1A
19
0:
b10001111 T
b1011 Z
#1665000
1@
0A
09
1:
#1670000
0@
1A
19
0:
b10010000 T
b1100 Z
#1675000
1@
0A
09
1:
#1680000
0@
1A
19
0:
b10010001 T
b1101 Z
#1685000
1@
0A
09
1:
#1690000
0@
1A
19
0:
b10010010 T
b1110 Z
#1695000
1@
0A
09
1:
#1700000
0@
1A
19
0:
b10010011 T
b1111 Z
#1705000
1@
0A
09
1:
#1710000
0@
1A
19
0:
b10010100 T
b10000 Z
#1715000
1@
0A
09
1:
#1720000
0@
1A
19
0:
b10010101 T
b10001 Z
#1725000
1@
0A
09
1:
#1730000
0@
1A
19
0:
b10010110 T
b10010 Z
#1735000
1@
0A
09
1:
#1740000
0@
1A
19
0:
b10010111 T
b10011 Z
#1745000
1@
0A
09
1:
#1750000
0@
1A
19
0:
b10011000 T
b10100 Z
#1755000
1@
0A
09
1:
#1760000
0@
1A
19
0:
b10011001 T
b10101 Z
#1765000
1@
0A
09
1:
#1770000
0@
1A
19
0:
b10011010 T
b10110 Z
#1775000
1@
0A
09
1:
#1780000
0@
1A
19
0:
b10011011 T
b10111 Z
#1785000
1@
0A
09
1:
#1790000
0@
1A
19
0:
b10011100 T
b11000 Z
#1795000
1@
0A
09
1:
#1800000
0@
1A
19
0:
b10011101 T
b11001 Z
#1805000
1@
0A
09
1:
#1810000
0@
1A
19
0:
b10011110 T
b11010 Z
#1815000
1@
0A
09
1:
#1820000
0@
1A
19
0:
b10011111 T
b11011 Z
#1825000
1@
0A
09
1:
#1830000
0@
1A
19
0:
b10100000 T
b11100 Z
#1835000
1@
0A
09
1:
#1840000
0@
1A
19
0:
b10100001 T
b11101 Z
#1845000
1@
0A
09
1:
#1850000
0@
1A
19
0:
b10100010 T
b11110 Z
#1855000
1@
0A
09
1:
#1860000
0@
1A
19
0:
b10100011 T
b11111 Z
#1865000
1@
0A
09
1:
#1870000
0@
1A
19
0:
b10100100 T
b100000 Z
#1875000
1@
0A
09
1:
#1880000
0@
1A
19
0:
b10100101 T
b100001 Z
#1885000
1@
0A
09
1:
#1890000
0@
1A
19
0:
b10100110 T
b100010 Z
#1895000
1@
0A
09
1:
#1900000
0@
1A
19
0:
b10100111 T
b100011 Z
#1905000
1@
0A
09
1:
#1910000
0@
1A
19
0:
b10101000 T
b100100 Z
#1915000
1@
0A
09
1:
#1920000
0@
1A
19
0:
b10101001 T
b100101 Z
#1925000
1@
0A
09
1:
#1930000
0@
1A
19
0:
b10101010 T
b100110 Z
#1935000
1@
0A
09
1:
#1940000
0@
1A
19
0:
b10101011 T
b100111 Z
1Y
b0 R
#1945000
1@
0A
09
1:
#1950000
0@
1A
19
0:
b0 Q
b10101100 T
b101000 Z
b1 R
1X
#1955000
1@
0A
09
1:
#1960000
0@
1A
19
0:
b1 Q
b10101101 T
0Y
b0 Z
0?
b11 R
#1965000
1@
0A
09
1:
#1970000
0@
1A
19
0:
b11 Q
b10101110 T
0X
#1975000
1@
0A
09
1:
#1980000
0@
1A
19
0:
b10101111 T
b1 Z
#1985000
1@
0A
09
1:
#1990000
b10100000000000000001 &
b10100100000000000001 &
0@
1A
b100000000000001 4
b1 0
1+
19
0:
b10110000 T
b10 Z
#1995000
1@
0A
09
1:
#2000000
0@
1A
19
0:
b10110001 T
b11 Z
#2005000
1@
0A
09
1:
#2010000
0@
1A
19
0:
b10110010 T
b100 Z
#2015000
1@
0A
09
1:
#2020000
0@
1A
19
0:
b10110011 T
b101 Z
#2025000
1@
0A
09
1:
#2030000
0@
1A
19
0:
b10110100 T
b110 Z
#2035000
1@
0A
09
1:
#2040000
0@
1A
19
0:
b10110101 T
b111 Z
#2045000
1@
0A
09
1:
#2050000
0@
1A
19
0:
b10110110 T
b1000 Z
#2055000
1@
0A
09
1:
#2060000
0@
1A
19
0:
b10110111 T
b1001 Z
#2065000
1@
0A
09
1:
#2070000
0@
1A
19
0:
b10111000 T
b1010 Z
#2075000
1@
0A
09
1:
#2080000
0@
1A
19
0:
b10111001 T
b1011 Z
#2085000
1@
0A
09
1:
#2090000
0@
1A
19
0:
b10111010 T
b1100 Z
#2095000
1@
0A
09
1:
#2100000
0@
1A
19
0:
b10111011 T
b1101 Z
#2105000
1@
0A
09
1:
#2110000
0@
1A
19
0:
b10111100 T
b1110 Z
#2115000
1@
0A
09
1:
#2120000
0@
1A
19
0:
b10111101 T
b1111 Z
#2125000
1@
0A
09
1:
#2130000
0@
1A
19
0:
b10111110 T
b10000 Z
#2135000
1@
0A
09
1:
#2140000
0@
1A
19
0:
b10111111 T
b10001 Z
#2145000
1@
0A
09
1:
#2150000
0@
1A
19
0:
b11000000 T
b10010 Z
#2155000
1@
0A
09
1:
#2160000
0@
1A
19
0:
b11000001 T
b10011 Z
#2165000
1@
0A
09
1:
#2170000
0@
1A
19
0:
b11000010 T
b10100 Z
#2175000
1@
0A
09
1:
#2180000
0@
1A
19
0:
b11000011 T
b10101 Z
#2185000
1@
0A
09
1:
#2190000
0@
1A
19
0:
b11000100 T
b10110 Z
#2195000
1@
0A
09
1:
#2200000
0@
1A
19
0:
b11000101 T
b10111 Z
#2205000
1@
0A
09
1:
#2210000
0@
1A
19
0:
b11000110 T
b11000 Z
#2215000
1@
0A
09
1:
#2220000
0@
1A
19
0:
b11000111 T
b11001 Z
#2225000
1@
0A
09
1:
#2230000
0@
1A
19
0:
b11001000 T
b11010 Z
#2235000
1@
0A
09
1:
#2240000
0@
1A
19
0:
b11001001 T
b11011 Z
#2245000
1@
0A
09
1:
#2250000
0@
1A
19
0:
b11001010 T
b11100 Z
#2255000
1@
0A
09
1:
#2260000
0@
1A
19
0:
b11001011 T
b11101 Z
#2265000
1@
0A
09
1:
#2270000
0@
1A
19
0:
b11001100 T
b11110 Z
#2275000
1@
0A
09
1:
#2280000
0@
1A
19
0:
b11001101 T
b11111 Z
#2285000
1@
0A
09
1:
#2290000
0@
1A
19
0:
b11001110 T
b100000 Z
#2295000
1@
0A
09
1:
#2300000
0@
1A
19
0:
b11001111 T
b100001 Z
#2305000
1@
0A
09
1:
#2310000
0@
1A
19
0:
b11010000 T
b100010 Z
#2315000
1@
0A
09
1:
#2320000
0@
1A
19
0:
b11010001 T
b100011 Z
#2325000
1@
0A
09
1:
#2330000
0@
1A
19
0:
b11010010 T
b100100 Z
#2335000
1@
0A
09
1:
#2340000
0@
1A
19
0:
b11010011 T
b100101 Z
#2345000
1@
0A
09
1:
#2350000
0@
1A
19
0:
b11010100 T
b100110 Z
#2355000
1@
0A
09
1:
#2360000
0@
1A
19
0:
b11010101 T
b100111 Z
1Y
b101 R
#2365000
1@
0A
09
1:
#2370000
0@
1A
19
0:
b101 Q
b11010110 T
b101000 Z
b1010111110111100 6
b1010111110111100 %
#2375000
1@
0A
09
1:
#2380000
0@
1A
19
0:
b11010111 T
b101001 Z
#2385000
1@
0A
09
1:
#2390000
0@
1A
19
0:
b11011000 T
b101010 Z
#2395000
1@
0A
09
1:
#2400000
0@
1A
19
0:
b11011001 T
b101011 Z
#2405000
1@
0A
09
1:
#2410000
0@
1A
19
0:
b11011010 T
b101100 Z
#2415000
1@
0A
09
1:
#2420000
0@
1A
19
0:
b11011011 T
b101101 Z
#2425000
1@
0A
09
1:
#2430000
0@
1A
19
0:
b11011100 T
b101110 Z
#2435000
1@
0A
09
1:
#2440000
0@
1A
19
0:
b11011101 T
b101111 Z
#2445000
1@
0A
09
1:
#2450000
0@
1A
19
0:
b11011110 T
b110000 Z
#2455000
1@
0A
09
1:
#2460000
0@
1A
19
0:
b11011111 T
b110001 Z
#2465000
1@
0A
09
1:
#2470000
0@
1A
19
0:
b11100000 T
b110010 Z
#2475000
1@
0A
09
1:
#2480000
0@
1A
19
0:
b11100001 T
b110011 Z
#2485000
1@
0A
09
1:
#2490000
0@
1A
19
0:
b11100010 T
b110100 Z
#2495000
1@
0A
09
1:
#2500000
0@
1A
19
0:
b11100011 T
b110101 Z
#2505000
1@
0A
09
1:
#2510000
0@
1A
19
0:
b11100100 T
b110110 Z
#2515000
1@
0A
09
1:
#2520000
0@
1A
19
0:
b11100101 T
b110111 Z
#2525000
1@
0A
09
1:
#2530000
0@
1A
19
0:
b11100110 T
b111000 Z
#2535000
1@
0A
09
1:
#2540000
0@
1A
19
0:
b11100111 T
b111001 Z
#2545000
1@
0A
09
1:
#2550000
0@
1A
19
0:
b11101000 T
b111010 Z
#2555000
1@
0A
09
1:
#2560000
0@
1A
19
0:
b11101001 T
b111011 Z
#2565000
1@
0A
09
1:
#2570000
0@
1A
19
0:
b11101010 T
b111100 Z
#2575000
1@
0A
09
1:
#2580000
0@
1A
19
0:
b11101011 T
b111101 Z
#2585000
1@
0A
09
1:
#2590000
0@
1A
19
0:
b11101100 T
b111110 Z
#2595000
1@
0A
09
1:
#2600000
0@
1A
19
0:
b11101101 T
b111111 Z
#2605000
1@
0A
09
1:
#2610000
0@
1A
19
0:
b11101110 T
b1000000 Z
#2615000
1@
0A
09
1:
#2620000
0@
1A
19
0:
b11101111 T
b1000001 Z
#2625000
1@
0A
09
1:
#2630000
0@
1A
19
0:
b11110000 T
b1000010 Z
#2635000
1@
0A
09
1:
#2640000
0@
1A
19
0:
b11110001 T
b1000011 Z
#2645000
1@
0A
09
1:
#2650000
0@
1A
19
0:
b11110010 T
b1000100 Z
#2655000
1@
0A
09
1:
#2660000
0@
1A
19
0:
b11110011 T
b1000101 Z
#2665000
1@
0A
09
1:
#2670000
0@
1A
19
0:
b11110100 T
b1000110 Z
#2675000
1@
0A
09
1:
#2680000
0@
1A
19
0:
b11110101 T
b1000111 Z
#2685000
1@
0A
09
1:
#2690000
0@
1A
19
0:
b11110110 T
b1001000 Z
#2695000
1@
0A
09
1:
#2700000
0@
1A
19
0:
b11110111 T
b1001001 Z
#2705000
1@
0A
09
1:
#2710000
0@
1A
19
0:
b11111000 T
b1001010 Z
#2715000
1@
0A
09
1:
#2720000
0@
1A
19
0:
b11111001 T
b1001011 Z
#2725000
1@
0A
09
1:
#2730000
0@
1A
19
0:
b11111010 T
b1001100 Z
#2735000
1@
0A
09
1:
#2740000
0@
1A
19
0:
b11111011 T
b1001101 Z
#2745000
1@
0A
09
1:
#2750000
0@
1A
19
0:
b11111100 T
b1001110 Z
#2755000
1@
0A
09
1:
#2760000
0@
1A
19
0:
b11111101 T
b1001111 Z
#2765000
1@
0A
09
1:
#2770000
0@
1A
19
0:
b11111110 T
b1010000 Z
#2775000
1@
0A
09
1:
#2780000
0@
1A
19
0:
b11111111 T
b1010001 Z
#2785000
1@
0A
09
1:
#2790000
0!
b10101100000000000001 &
0@
1A
b1100000000000001 4
1*
01
19
0:
b100000000 T
b1010010 Z
#2795000
1@
0A
09
1:
#2800000
b0 &
0@
1A
b0 4
b0 0
0+
0*
b0 (
0'
b0 <
b111 R
1?
19
0:
b0 ;
b111 Q
b100000001 T
b1010011 Z
b0 R
#2805000
1@
0A
09
1:
#2810000
0@
1A
19
0:
b0 Q
b100000010 T
b1010100 Z
b1 R
1X
#2815000
1@
0A
09
1:
#2820000
0@
1A
19
0:
b1 Q
b100000011 T
0Y
b0 Z
0=
b0 >
0?
#2825000
1@
0A
09
1:
#2830000
0@
1A
19
0:
b100000100 T
#2835000
1@
0A
09
1:
#2840000
0@
1A
19
0:
b100000101 T
#2845000
1@
0A
09
1:
#2850000
0@
1A
19
0:
b100000110 T
#2855000
1@
0A
09
1:
#2860000
0@
1A
19
0:
b100000111 T
#2865000
1@
0A
09
1:
#2870000
0@
1A
19
0:
b100001000 T
#2875000
1@
0A
09
1:
#2880000
0@
1A
19
0:
b100001001 T
#2885000
1@
0A
09
1:
#2890000
0@
1A
19
0:
b100001010 T
#2895000
1@
0A
09
1:
#2900000
0@
1A
19
0:
b100001011 T
